<svg id="minetime-logo" xmlns="http://www.w3.org/2000/svg" xmlns:xlink="http://www.w3.org/1999/xlink" viewBox="0 0 1000 1000" width="100%" height="auto">
    <style>
        #minetime-logo {
          max-width: 500px;
        }
        #clock {
          transform: translateY(0px);
          transition: transform 0.5s ease-in-out;
        }
        #clock:hover {
          transform: translateY(-75px);
        }
        #wheel {
            transform-origin: 400px 825px;
            transform: rotate(45deg);
            animation: turning-wheel 1s infinite;
            animation-timing-function: linear;
        }
        #seconds-hand {
          transform-origin: 500px 500px;
          animation: turning-hand 60s infinite;
          animation-timing-function: linear;
        }
        #minutes-hand {
          transform-origin: 500px 500px;
          animation: turning-hand 3600s infinite;
          animation-timing-function: linear;
        }
        #box {
          animation: bobbing-box 1s infinite;
          animation-timing-function: linear;
        }
        #tracks {
          animation: moving-tracks 1s infinite;
          animation-timing-function: linear;
        }
        #first-track {
          animation: fading-track 1s infinite;
          animation-timing-function: linear;
        }
        #last-track {
          animation: appearing-track 1s infinite;
          animation-timing-function: linear;
        }
        @keyframes turning-wheel {
          0% {transform: rotate(0deg)}
          100% {transform: rotate(180deg)}
        }
        @keyframes bobbing-box {
          0% {transform: translateY(0)}
          50% {transform: translateY(-10px)}
          100% {transform: translateY(0)}
        }
        @keyframes moving-tracks {
          0% {
            transform: translateX(0);
          }
          100% {
            transform: translateX(-100px);
          }
        }
        @keyframes fading-track {
          0% {opacity: 1}
          100% {opacity: 0}
        }
        @keyframes appearing-track {
          0% {opacity: 0}
          100% {opacity: 1}
        }
        @keyframes turning-hand {
          0% {transform: rotate(0deg)}
          100% {transform: rotate(360deg)}
        }
    </style>
    <defs>
    </defs>
    <g id="rails" stroke-width="25" stroke="black" fill="white">
        <path d="M125 800 875 800" />
        <g id="tracks">
          <path id="first-track" d="M250 775 L250 917.5"/>
          <path d="M350 775 L350 917.5"/>
          <path d="M450 775 L450 917.5"/>
          <path d="M550 775 L550 917.5"/>
          <path d="M650 775 L650 917.5"/>
          <path d="M750 775 L750 917.5"/>
          <path id="last-track" d="M850 775 L850 917.5"/>
        </g>
        <path d="M125 892.5 875 892.5" />
    </g>
    <rect x="400" y ="740" width="200" height="85" fill="white" stroke-width="25" stroke="black" />
    <g id="box" stroke-width="25" stroke="black" fill="white">
        <g id="clock">
            <g id="clock__top-button">
                <rect x="475" y ="300" width="50" height="50" fill="white" stroke-width="25" stroke="black" />
                <rect x="450" y ="260" width="100" height="40" fill="white" stroke-width="25" stroke="black" />
            </g>
            <g id="clock__side-button" transform = "rotate(45 500 500)">
                <rect x="480" y ="300" width="40" height="50" fill="white" stroke-width="25" stroke="black" />
                <rect x="470" y ="285" width="60" height="35" fill="white" stroke-width="25" stroke="black" />
            </g>
            <circle cx="500" cy="500" r="150" stroke-width="25" stroke="black" fill="white"/>
            <g id="minute-marks" stroke-width="10" stroke="black">
              <path d="M500 375 L500 400" />
              <path d="M500 375 L500 390" transform="rotate(15 500 500)" />
              <path d="M500 375 L500 390" transform="rotate(30 500 500)" />
              <path d="M500 375 L500 400" transform="rotate(45 500 500)" />
              <path d="M500 375 L500 390" transform="rotate(60 500 500)" />
              <path d="M500 375 L500 390" transform="rotate(75 500 500)" />
              <path d="M500 375 L500 400" transform="rotate(90 500 500)" />
              <path d="M500 375 L500 390" transform="rotate(105 500 500)" />
              <path d="M500 375 L500 390" transform="rotate(120 500 500)" />
              <path d="M500 375 L500 400" transform="rotate(135 500 500)" />
              <path d="M500 375 L500 390" transform="rotate(150 500 500)" />
              <path d="M500 375 L500 390" transform="rotate(165 500 500)" />
              <path d="M500 375 L500 400" transform="rotate(180 500 500)" />
              <path d="M500 375 L500 390" transform="rotate(195 500 500)" />
              <path d="M500 375 L500 390" transform="rotate(210 500 500)" />
              <path d="M500 375 L500 400" transform="rotate(225 500 500)" />
              <path d="M500 375 L500 390" transform="rotate(240 500 500)" />
              <path d="M500 375 L500 390" transform="rotate(255 500 500)" />
              <path d="M500 375 L500 400" transform="rotate(270 500 500)" />
              <path d="M500 375 L500 390" transform="rotate(285 500 500)" />
              <path d="M500 375 L500 390" transform="rotate(300 500 500)" />
              <path d="M500 375 L500 400" transform="rotate(315 500 500)" />
              <path d="M500 375 L500 390" transform="rotate(330 500 500)" />
              <path d="M500 375 L500 390" transform="rotate(345 500 500)" />
            </g>
            <path id="seconds-hand" d="M500 512.5 L500 387.5" stroke="red" stroke-width="5" fill="none"/>
            <path id="minutes-hand" d="M500 512.5 L500 437.5" stroke="black" stroke-width="10" fill="none"/>
        </g>
        <path d="M250 500 L750 500 L675 750 L325 750z" />
        <path d="M250 500 L675 750" />
        <path d="M750 500 L325 750" />
        <circle cx="500" cy="647" r="7.5" stroke="none" fill="white"/>
        <circle cx="250" cy="500" r="7.5" stroke="none" fill="white"/>
        <circle cx="750" cy="500" r="7.5" stroke="none" fill="white"/>
        <circle cx="675" cy="750" r="7.5" stroke="none" fill="white"/>
        <circle cx="325" cy="750" r="7.5" stroke="none" fill="white"/>
    </g>
    <g id="wheel-group">
    <g id="wheel" stroke="black" fill="white">
        <circle cx="400" cy="825" r="47.5" stroke-width="25" fill="none" />
        <g id="wheel__cross"  stroke-width="12.5" >
            <path d="M355 825 L445 825" />
            <path d="M400 780 L400 870" />
        </g>
        <circle cx="400" cy="825" r="15" stroke-width="12.5"/>
    </g>
    </g>
    <use x="200" xlink:href="#wheel-group" stroke-width="25" stroke="black" fill="white"/>
</svg>
